%YAML 1.1
%TAG !u! tag:unity3d.com,2011:
--- !u!1 &7499089824545866571
GameObject:
  m_ObjectHideFlags: 0
  m_CorrespondingSourceObject: {fileID: 0}
  m_PrefabInstance: {fileID: 0}
  m_PrefabAsset: {fileID: 0}
  serializedVersion: 6
  m_Component:
  - component: {fileID: 7499089824545866580}
  - component: {fileID: 3519718845417088359}
  m_Layer: 0
  m_Name: L1_Slot_10
  m_TagString: Untagged
  m_Icon: {fileID: 0}
  m_NavMeshLayer: 0
  m_StaticEditorFlags: 0
  m_IsActive: 1
--- !u!4 &7499089824545866580
Transform:
  m_ObjectHideFlags: 0
  m_CorrespondingSourceObject: {fileID: 0}
  m_PrefabInstance: {fileID: 0}
  m_PrefabAsset: {fileID: 0}
  m_GameObject: {fileID: 7499089824545866571}
  m_LocalRotation: {x: 0, y: -0.7071068, z: 0, w: 0.7071068}
  m_LocalPosition: {x: -5, y: 0, z: -5}
  m_LocalScale: {x: 1, y: 1, z: 1}
  m_Children: []
  m_Father: {fileID: 0}
  m_RootOrder: 0
  m_LocalEulerAnglesHint: {x: 0, y: -90, z: 0}
--- !u!114 &3519718845417088359
MonoBehaviour:
  m_ObjectHideFlags: 0
  m_CorrespondingSourceObject: {fileID: 0}
  m_PrefabInstance: {fileID: 0}
  m_PrefabAsset: {fileID: 0}
  m_GameObject: {fileID: 7499089824545866571}
  m_Enabled: 1
  m_EditorHideFlags: 0
  m_Script: {fileID: 11500000, guid: 3fc91d6ebb61e824480f76d0bf4f4816, type: 3}
  m_Name: 
  m_EditorClassIdentifier: 
  PropList:
  - {fileID: 2880691503491742505, guid: 385cf96e780f23c479243f64e9d55568, type: 3}
  - {fileID: 2880691503491742505, guid: e03548fb3dad3a34c8e210178d362a61, type: 3}
  - {fileID: 2880691503491742505, guid: 800a6926ed6f72d41aab5f6a9833a694, type: 3}
  - {fileID: 2880691503491742505, guid: 7af924aee97f4f54e9abad65ed370fef, type: 3}
  - {fileID: 2880691503491742505, guid: 23712f660610d894d90073297f607996, type: 3}
  FloorMaterial: {fileID: 0}
  WallMaterial: {fileID: 0}
